Usuario jose, Logueado, Token: eyJhbGciOiJIUzI1NiIsInR5cCI6IkpXVCJ9.eyJyb2wiOiJjbGllbnRlIiwidXN1YXJpbyI6Impvc2UiLCJpYXQiOjE2NTQ2Nzg4Njl9.UWkZEBSPcGE9svQybQ_2EorGhTJXl428jtF-FYuoP-Y.
Usuario jose, Logueado, Token: eyJhbGciOiJIUzI1NiIsInR5cCI6IkpXVCJ9.eyJyb2wiOiJjbGllbnRlIiwidXN1YXJpbyI6Impvc2UiLCJpYXQiOjE2NTQ2NzkyOTh9.O5znfLUgHhNGm2lERfZce51eaOdar8B1QYutAjRO_vM.
Usuario jose, Logueado, Token: eyJhbGciOiJIUzI1NiIsInR5cCI6IkpXVCJ9.eyJyb2wiOiJjbGllbnRlIiwidXN1YXJpbyI6Impvc2UiLCJpYXQiOjE2NTQ2Nzk1MjJ9.z6DO_3xJ9HTs3g48Q9camHu2-I4HRyckN2wus92tFLs.
Usuario jose, Logueado, Token: eyJhbGciOiJIUzI1NiIsInR5cCI6IkpXVCJ9.eyJyb2wiOiJjbGllbnRlIiwidXN1YXJpbyI6Impvc2UiLCJpYXQiOjE2NTQ2Nzk3OTF9.b6bPjuHn1ZWkgP8S6gxf15o6d03CTwEDPRTL6cdfzuc.
Usuario jose, Logueado, Token: eyJhbGciOiJIUzI1NiIsInR5cCI6IkpXVCJ9.eyJyb2wiOiJjbGllbnRlIiwidXN1YXJpbyI6Impvc2UiLCJpYXQiOjE2NTQ2ODAwOTN9.GIf8VPxWjRAWwxMfjAPsJrNAWzkXNG0Yuja__RaLwWE.
[2022-06-08 09:21:44.828365] /recibirPedido - Pedido agregado - API restaurante 
[2022-06-08 09:21:44.830028] /solicitarPedido - Pedido envido al restaurante - API cliente 
[2022-06-08 09:21:49.755748] /pedidosCliente - Pedidos del cliente jose encontrados - API restaurante 
[2022-06-08 09:21:49.765824] /misPedidosRestaurante - pedidos del cliente retornados - API cliente 
[2022-06-08 09:21:51.195814] /pedidosCliente - Pedidos del cliente jose encontrados - API repartidor 
[2022-06-08 09:21:51.205715] /misPedidosRepartidor - pedidos del cliente retornados - API cliente 
[2022-06-08 09:21:52.308079] /pedidosCliente - Pedidos del cliente jose encontrados - API restaurante 
[2022-06-08 09:21:52.312318] /misPedidosRestaurante - pedidos del cliente retornados - API cliente 
Usuario jose, Logueado, Token: eyJhbGciOiJIUzI1NiIsInR5cCI6IkpXVCJ9.eyJyb2wiOiJyZXN0YXVyYW50ZSIsInVzdWFyaW8iOiJqb3NlIiwiaWF0IjoxNjU0NjgwNTE0fQ.mT4_x7mr1tuU651x5CD2siznccq0f_XeygkOYKOEC-g.
